16 -16 24 -56 -72 -40 -80 -40 -32 -80 456
24 -64 -8 -16 -48 -64 -48 664
-24 72 -72 -64 -64 -32 -80 -72 -64 -80 -72 208
-40 -72 -40 816
-48 -8 -56 -64 -40 -72 -8 -48 584
-8 8 -24 -40 -64 -24 -64 -32 -48 -48 -80 -80 376
56 -8 -24 -32 840
-32 -8 -48 -64 -64 -16 -24 680
-24 -16 -8 -56 -80 -56 704
-8 56 -24 -48 -64 -40 -16 -32 -16 -32 -16 -80 -40 -72 -72 -64 184
40 -72 864
80 -8 -72 -64 -80 -80 -48 -80 416
-40 -56 880
-48 -40 -16 -32 -16 -16 -72 -24 -72 -72 504
-40 -56 32 -56 -32 -16 -64 -56 -72 -72 -72 336
16 -72 -16 864
-16 968
-40 -64 -56 -72 -48 -24 -32 -40 552
96 -80 -80 -80 -32 -80 496
-8 -32 16 -8 -72 -80 728
