-320 -320 -336
992
176 -88 -136 568
-160 -40 88 -48 -144 472
-88 -112 -40 -152 568
-64 32 -64 136 -40 16 -56 -88 432
-96 -136 -64 -88 576
992
-112 872
-152 -56 768
-104 -48 -48 -128 -72 -136 408
-80 -136 -96 -128 -72 -144 -88 192
-88 -64 824
-72 32 -40 -48 -160 600
-104 144 -104 -80 -152 -144 216
-128 856
48 -152 -80 688
96 -152 728
-48 224 -104 592
48 -56 -64 800
