25

9
5
2
3
-2
-1

93
-1
1
3
4
6
7
8
10
2
-5

32
-1
40
12
-1
28

51
-1
51
-1
51
-1
51
-1

90
-1
9
28
34
2
-3
-2

7
53
2
-2
4
1
3
5
-3

42
-1
59
-1
10
20
30
40
-4
-2
-1

83
-1
10
20
30
-3
10

4
-1
91
-1
3
4
1
5
8
1
4
9
12

10
49
-2
100
2

68
-1
38
-1
124
-1

20
9
-2
-1
8

19
-1
5
20
-1
-1

75
-1
6
13
43
-3
52

6
47
-1
7
2
45
-2
-1

5
12
6
-3

5
10
-1
7
-2
1
2
3
4
5
6
7
8
9
10

33
-1
5
11
-2
3
17
-3
32
12

9
17
2
13
-4
-3
-2
-1

19
22
-1
-1

10
-1
11
-1

5
4
1
-3
27

25
-1
9
66
-2

5
3
8
9
8
-5
-4

10
-1
22
-1
59
2
3
-1
-2
-1
