22

7
6
1
3
-2
-1

7
6
1
3
-1
-1

7
6
1
3
-1
-2

2
7
2
5
8
-4
-1
-2

1
-1
1
-1
1
-1

4
1
1
1
-1
-1
-1
-1

1
2
3
4
-4
-3
-2
-1

4
2
6
8
-4

10
12
1
1
1
1
-1
-1

7
4
5
1
2
3
-4
5
-1
-3

100
-1

40
60
-2

4
6
4
3
5
7
4
-4
-1
-2
-3

5
3
7
6
4
-1
-2

1
1
1
1
1
1
-1
-1
-1
-1
-1

5
6
4
3
68
6
4
6
-5
-1
-1
-1

10
10
10
10
10
10
10
-1
-1
-1
-1

7
4
6
8
9
6
4
3
4
6
4
-1

3
3
3
3
3
3
3
-2
-3
-4

10
20
30
40
-4
-1

1
1
1
1
1
1
1
1
1
-9

7
5
2
4
6
8
-1
-1
-1
-1
-1
