992
-8 -16 -24 -32 -40 -48 -56 144 -80 472
96 -64 -72 -80 648
-992
-24 -16 8 -32 -24 16 -80 736
-64 440 -80 384
-736 -80 160
-376 -184 416
-48 56 -400 464
-8 -8 -8 -40 -8 -8 -8 -8 -8 -8 -8 784
-736 -80 160
-24 960
-136 -112 328 -136 248
32 -64 -96 320 -136 304
-960 24
-112 -72 -16 8 -8 8 -8 -8 -8 -224 -24 408
-16 32 -48 -144 -504 208
-360 -24 -32 -40 -48 -152 -232 48
-24 -296 -8 640
-16 48 -72 176 -448 -176 8
-112 32 -576 -24 216
152 -112 -360 88 -24 216
-552 264 -8 -32 -40 56
-568 -136 272
